<?xml version="1.0" encoding="iso-8859-1"?>
<!-- Generator: Adobe Illustrator 21.0.2, SVG Export Plug-In . SVG Version: 6.00 Build 0)  -->
<svg version="1.1" id="Layer_1" xmlns="http://www.w3.org/2000/svg" xmlns:xlink="http://www.w3.org/1999/xlink" x="0px" y="0px"
	 viewBox="0 0 100 100" style="enable-background:new 0 0 100 100;" xml:space="preserve">
<path style="fill:#FFFFFF;" d="M84.887,31.919H16.649c-1.292,0-2.35-1.058-2.35-2.35v-12.71c0-1.292,1.058-2.35,2.35-2.35h68.238
	c1.292,0,2.35,1.058,2.35,2.35v12.71C87.237,30.861,86.179,31.919,84.887,31.919z"/>
<rect x="18.999" y="19.209" style="fill:#F99E36;" width="44.947" height="7.998"/>
<path style="fill:#165573;" d="M74.54,23.22L74.54,23.22c0-2.239,1.759-3.999,3.999-3.999l0,0c2.239,0,3.999,1.759,3.999,3.999l0,0
	c0,2.239-1.759,3.999-3.999,3.999l0,0C76.299,27.219,74.54,25.336,74.54,23.22z"/>
<path style="fill:#FFFFFF;" d="M84.887,54.743H16.649c-1.292,0-2.35-1.058-2.35-2.35V39.572c0-1.292,1.058-2.35,2.35-2.35h68.238
	c1.292,0,2.35,1.058,2.35,2.35v12.71C87.237,53.685,86.179,54.743,84.887,54.743z"/>
<rect x="18.999" y="41.922" style="fill:#F99E36;" width="44.947" height="7.998"/>
<path style="fill:#165573;" d="M74.54,45.921L74.54,45.921c0-2.239,1.759-3.999,3.999-3.999l0,0c2.239,0,3.999,1.759,3.999,3.999
	l0,0c0,2.239-1.759,3.999-3.999,3.999l0,0C76.299,50.043,74.54,48.16,74.54,45.921z"/>
<path style="fill:#FFFFFF;" d="M84.887,77.456H16.649c-1.292,0-2.35-1.058-2.35-2.35v-12.71c0-1.292,1.058-2.35,2.35-2.35h68.238
	c1.292,0,2.35,1.058,2.35,2.35v12.71C87.237,76.398,86.179,77.456,84.887,77.456z"/>
<path style="fill:#165573;" d="M84.887,33.1c2.006,0,3.531-1.526,3.531-3.531v-12.71c0-2.006-1.526-3.531-3.531-3.531H16.649
	c-2.006,0-3.531,1.538-3.531,3.531v12.71c0,2.006,1.526,3.531,3.531,3.531h32.95v3.064h-32.95c-2.006-0.012-3.531,1.526-3.531,3.519
	v12.71c0,2.006,1.526,3.531,3.531,3.531h32.95v3.064h-32.95c-2.006,0-3.531,1.526-3.531,3.519v12.71
	c0,2.006,1.526,3.531,3.531,3.531h32.95v6.706H32.066v2.35H69.47v-2.35H51.949v-6.706H84.9c2.006,0,3.531-1.526,3.531-3.531V62.396
	c0-2.006-1.526-3.531-3.531-3.531h-32.95v-3.064H84.9c2.006,0,3.531-1.526,3.531-3.531V39.572c0-2.006-1.526-3.531-3.531-3.531
	h-32.95v-3.064H84.9V33.1H84.887z M84.887,61.215c0.701,0,1.181,0.468,1.181,1.181v12.71c0,0.701-0.468,1.181-1.181,1.181H16.649
	c-0.701,0-1.181-0.468-1.181-1.181v-12.71c0-0.701,0.468-1.181,1.181-1.181H84.887z M84.887,38.391c0.701,0,1.181,0.468,1.181,1.181
	v12.71c0,0.701-0.468,1.181-1.181,1.181H16.649c-0.701,0-1.181-0.468-1.181-1.181v-12.71c0-0.701,0.468-1.181,1.181-1.181H84.887z
	 M16.649,30.738c-0.701,0-1.181-0.468-1.181-1.181V16.859c0-0.701,0.468-1.181,1.181-1.181h68.238c0.701,0,1.181,0.468,1.181,1.181
	v12.71c0,0.701-0.468,1.181-1.181,1.181C84.887,30.75,16.649,30.75,16.649,30.738z"/>
<rect x="18.999" y="64.746" style="fill:#F99E36;" width="44.947" height="7.998"/>
<path style="fill:#165573;" d="M74.54,68.745L74.54,68.745c0-2.239,1.759-3.999,3.999-3.999l0,0c2.239,0,3.999,1.759,3.999,3.999
	l0,0c0,2.239-1.759,3.999-3.999,3.999l0,0C76.299,72.744,74.54,70.984,74.54,68.745z"/>
<g>
	<rect x="25.003" y="22.039" style="fill:#FFFFFF;" width="2.35" height="2.35"/>
	<rect x="32.644" y="22.039" style="fill:#FFFFFF;" width="2.35" height="2.35"/>
	<rect x="40.297" y="22.039" style="fill:#FFFFFF;" width="2.35" height="2.35"/>
	<rect x="47.938" y="22.039" style="fill:#FFFFFF;" width="2.35" height="2.35"/>
	<rect x="55.591" y="22.039" style="fill:#FFFFFF;" width="2.35" height="2.35"/>
	<rect x="25.003" y="44.74" style="fill:#FFFFFF;" width="2.35" height="2.35"/>
	<rect x="32.644" y="44.74" style="fill:#FFFFFF;" width="2.35" height="2.35"/>
	<rect x="40.297" y="44.74" style="fill:#FFFFFF;" width="2.35" height="2.35"/>
	<rect x="47.938" y="44.74" style="fill:#FFFFFF;" width="2.35" height="2.35"/>
	<rect x="55.591" y="44.74" style="fill:#FFFFFF;" width="2.35" height="2.35"/>
	<rect x="25.003" y="67.576" style="fill:#FFFFFF;" width="2.35" height="2.35"/>
	<rect x="32.644" y="67.576" style="fill:#FFFFFF;" width="2.35" height="2.35"/>
	<rect x="40.297" y="67.576" style="fill:#FFFFFF;" width="2.35" height="2.35"/>
	<rect x="47.938" y="67.576" style="fill:#FFFFFF;" width="2.35" height="2.35"/>
	<rect x="55.591" y="67.576" style="fill:#FFFFFF;" width="2.35" height="2.35"/>
</g>
<g>
</g>
<g>
</g>
<g>
</g>
<g>
</g>
<g>
</g>
<g>
</g>
</svg>
