<?xml version="1.0" encoding="iso-8859-1"?>
<!-- Generator: Adobe Illustrator 21.0.2, SVG Export Plug-In . SVG Version: 6.00 Build 0)  -->
<svg version="1.1" id="Layer_1" xmlns="http://www.w3.org/2000/svg" xmlns:xlink="http://www.w3.org/1999/xlink" x="0px" y="0px"
	 viewBox="0 0 100 100" style="enable-background:new 0 0 100 100;" xml:space="preserve">
<g>
	<g>
		<rect x="19.112" y="60.551" style="fill:#193651;" width="2.463" height="2.341"/>
		<rect x="19.112" y="67.108" style="fill:#193651;" width="2.463" height="2.341"/>
		<rect x="19.112" y="73.676" style="fill:#193651;" width="2.463" height="2.341"/>
	</g>
	<g>
		<path style="fill:#FFFFFF;" d="M86.906,66.569c-0.674-1.397-2.083-2.267-3.701-2.267c-0.466,0-0.931,0.074-1.373,0.208
			l-18.725,6.287l0.784-2.328c0.049-0.159,0.049-0.588,0.049-0.895c0-2.402-1.936-4.289-4.4-4.289H47.36
			c-0.588,0-1.225-0.184-1.556-0.294l-0.086-0.025l-8.1-4.118l-0.037-0.037c-0.502-0.147-1.005-0.208-1.581-0.208H25.987v-0.025
			h-0.012v20.025h0.012v-0.074h4.461l22.549,7.316c0.686,0.196,1.544,0.417,2.218,0.417c1.078,0,2.279-0.294,3.309-0.809
			L85.019,71.74C86.98,70.772,87.801,68.542,86.906,66.569z"/>
		<rect x="14.663" y="55.392" style="fill:#F99E36;" width="11.373" height="25.662"/>
		<rect x="34.933" y="24.105" style="fill:#D3D7DA;" width="32.108" height="24.142"/>
		<g>
			<rect x="44.186" y="23.627" style="fill:#193651;" width="2.341" height="2.341"/>
			<rect x="49.811" y="23.627" style="fill:#193651;" width="2.341" height="2.341"/>
			<rect x="55.436" y="23.627" style="fill:#193651;" width="2.341" height="2.341"/>
			<rect x="82.629" y="28.787" style="fill:#F99E36;" width="2.341" height="2.341"/>
			<rect x="82.629" y="21.752" style="fill:#F99E36;" width="2.341" height="2.341"/>
			<rect x="82.629" y="35.699" style="fill:#F99E36;" width="2.341" height="2.341"/>
			<rect x="82.629" y="42.733" style="fill:#F99E36;" width="2.341" height="2.341"/>
			<rect x="17.004" y="28.787" style="fill:#F99E36;" width="2.341" height="2.341"/>
			<rect x="17.004" y="21.752" style="fill:#F99E36;" width="2.341" height="2.341"/>
			<rect x="17.004" y="35.699" style="fill:#F99E36;" width="2.341" height="2.341"/>
			<rect x="17.004" y="42.733" style="fill:#F99E36;" width="2.341" height="2.341"/>
		</g>
		<circle style="fill:#FFFFFF;" cx="51.108" cy="37.679" r="3.48"/>
		<g>
			<path style="fill:#165573;" d="M59.186,18.002V12.5H42.788v5.502H29.075v35.98h43.824v-35.98H59.186z M45.129,14.841h11.716
				v3.162H45.129V14.841z M70.803,51.642h-0.012H31.416V35.821c0.023,0.007,0.046,0.013,0.069,0.02
				c-0.219-0.683-0.284-1.465-0.153-2.361h-0.039V20.588h39.142V33.48h0.123c-2.665,0.8-5.516,1.41-8.469,1.851
				c0.071,0.712,0.046,1.434-0.072,2.148c3.034-0.434,5.972-1.027,8.786-1.781V51.642z"/>
			<path style="fill:#165573;" d="M88.021,66.054c-1.176-2.463-3.983-3.517-6.556-2.696l-16.409,5.515
				c0.123-0.355,0.123-0.821,0.123-1.287c0-3.051-2.463-5.502-5.625-5.502H47.372c-0.355,0-0.821-0.123-1.176-0.233l-7.855-3.983
				l-0.123-0.123c-0.699-0.233-1.409-0.355-2.23-0.355H27.2v-3.162H13.487V82.23H27.2v-2.463h3.051l22.377,7.267
				c0.821,0.233,1.752,0.466,2.574,0.466c1.287,0,2.696-0.355,3.873-0.931l26.483-13.713C88.132,71.569,89.186,68.627,88.021,66.054
				z M24.86,79.767V80h-9.032V56.556h9.02v23.211H24.86z M84.504,70.858L58.021,84.449c-1.409,0.699-3.162,0.821-4.694,0.355
				l-22.5-7.267H27.2V59.73h8.787c0.466,0,0.944,0.123,1.287,0.233l7.855,3.983l0.123,0.123c0.699,0.233,1.287,0.355,1.998,0.355
				h12.304c1.752,0,3.162,1.422,3.162,3.162s-1.422,3.162-3.162,3.162H49.357c-2.463,0-4.449,1.998-4.449,4.449h2.341
				c0-1.176,0.931-2.108,2.108-2.108h10.074c1.176,0,2.341-0.355,3.284-1.054l19.338-6.446c1.409-0.466,3.051,0.123,3.75,1.52
				C86.489,68.395,85.913,70.159,84.504,70.858z"/>
		</g>
		<rect x="29.075" y="18.002" style="fill:#165573;" width="44.255" height="35.98"/>
		<rect x="32.444" y="21.364" style="fill:#F99E36;" width="37.471" height="29.257"/>
		
			<rect x="45.393" y="34.929" style="fill:#FFFFFF;stroke:#165573;stroke-width:4;stroke-miterlimit:10;" width="11.374" height="2.179"/>
		
			<rect x="45.393" y="34.941" transform="matrix(-1.836970e-16 1 -1 -1.836970e-16 87.0983 -15.0616)" style="fill:#FFFFFF;stroke:#165573;stroke-width:4;stroke-miterlimit:10;" width="11.374" height="2.156"/>
		<rect x="49.481" y="35.308" style="fill:#FFFFFF;" width="3.547" height="1.394"/>
	</g>
</g>
<g>
</g>
<g>
</g>
<g>
</g>
<g>
</g>
<g>
</g>
<g>
</g>
</svg>
