<?xml version="1.0" encoding="iso-8859-1"?>
<!-- Generator: Adobe Illustrator 21.0.2, SVG Export Plug-In . SVG Version: 6.00 Build 0)  -->
<svg version="1.1" id="Layer_1" xmlns="http://www.w3.org/2000/svg" xmlns:xlink="http://www.w3.org/1999/xlink" x="0px" y="0px"
	 viewBox="0 0 64 64" style="enable-background:new 0 0 64 64;" xml:space="preserve">
<g>
	<path style="fill:#FFFFFF;" d="M31.956,1.956L31.956,1.956c-16.29,0-29.53,13.241-29.53,29.53l0,0
		c0,16.29,13.241,29.53,29.53,29.53l0,0c16.29,0,29.53-13.241,29.53-29.53l0,0C61.486,15.197,48.245,1.956,31.956,1.956z"/>
	<path style="fill:#165573;" d="M31.956,61.974c-16.768,0-30.487-13.719-30.487-30.487S15.188,1,31.956,1
		s30.487,13.719,30.487,30.487S48.724,61.974,31.956,61.974z M31.956,2.903c-15.722,0-28.584,12.862-28.584,28.584
		s12.862,28.584,28.584,28.584l0,0c15.722,0,28.584-12.862,28.584-28.584S47.677,2.903,31.956,2.903z"/>
	<path style="fill:#F99E36;" d="M31.956,57.211c-14.197,0-25.725-11.527-25.725-25.725S17.759,5.762,31.956,5.762
		S57.68,17.29,57.68,31.487S46.153,57.211,31.956,57.211z"/>
	<polygon style="fill:#FFFFFF;" points="41.391,20.916 28.618,33.778 22.521,27.681 18.336,31.776 24.434,37.873 25.38,38.919 
		28.618,42.058 32.713,37.873 45.575,25.101 	"/>
	<g>
		<path style="fill:#165573;" d="M28.618,43.393L17.001,31.776l5.529-5.529l6.097,6.097L41.49,19.481l5.529,5.529L28.618,43.393z
			 M19.661,31.776l8.857,8.857l15.632-15.622l-2.76-2.76L28.618,35.103l-6.097-6.097L19.661,31.776z"/>
		<rect x="24.713" y="49.59" style="fill:#165573;" width="1.903" height="1.903"/>
		<rect x="30.999" y="49.59" style="fill:#165573;" width="1.903" height="1.903"/>
		<rect x="37.286" y="49.59" style="fill:#165573;" width="1.903" height="1.903"/>
	</g>
</g>
<g>
</g>
<g>
</g>
<g>
</g>
<g>
</g>
<g>
</g>
<g>
</g>
</svg>
