<?xml version="1.0" encoding="iso-8859-1"?>
<!-- Generator: Adobe Illustrator 21.0.2, SVG Export Plug-In . SVG Version: 6.00 Build 0)  -->
<svg version="1.1" id="Layer_1" xmlns="http://www.w3.org/2000/svg" xmlns:xlink="http://www.w3.org/1999/xlink" x="0px" y="0px"
	 viewBox="0 0 64 64" style="enable-background:new 0 0 64 64;" xml:space="preserve">
<path style="fill:#FFFFFF;" d="M61.233,3.94c-14.012,0-26.768,5.361-36.311,14.127C19.052,18,13.154,20.196,8.685,24.666
	c-1.746,1.746-3.117,3.673-4.22,5.774c3.712-1.899,7.855-2.695,11.931-2.388c-1.333,2.024-2.532,4.134-3.587,6.33l17.973,17.973
	c2.206-1.055,4.316-2.263,6.34-3.597c0.326,4.095-0.451,8.267-2.311,12.036c2.11-1.007,4.038-2.474,5.774-4.22
	c4.517-4.517,6.723-10.492,6.598-16.429C55.9,30.622,61.233,17.904,61.233,3.94z"/>
<path style="fill:#F99E36;" d="M45.091,6.414l13.667,13.667c1.563-5.131,2.474-10.55,2.474-16.141
	C55.632,3.94,50.223,4.861,45.091,6.414z"/>
<circle style="fill:#165573;" cx="43.26" cy="21.923" r="5.591"/>
<path style="fill:#F99E36;" d="M13.442,36.961c-3.673,5.687-6.877,19.805-6.877,19.805s14.127-3.213,19.805-6.877L13.442,36.961z"/>
<g>
	<path style="fill:#165573;" d="M62.144,3.029h-0.921c-13.667,0-26.691,5.227-36.589,14.127h-0.096
		c-6.234,0-12.199,2.474-16.602,6.877c-1.746,1.746-3.213,3.76-4.306,5.965l-1.285,2.474l2.474-1.285
		c3.031-1.563,6.426-2.388,9.821-2.388c0.096,0,0.096,0,0.182,0c-1.007,1.65-2.014,3.395-2.839,5.131l-0.278,0.547l2.474,2.474
		c-3.664,6.234-6.512,19.076-6.694,19.623l-0.278,1.371l1.371-0.278c0.547-0.096,13.389-3.031,19.441-6.694l2.474,2.474l0.547-0.278
		c1.746-0.825,3.481-1.832,5.131-2.839c0,3.395-0.729,6.79-2.388,9.994l-1.285,2.474l2.474-1.285c2.206-1.103,4.22-2.57,5.965-4.306
		c4.402-4.402,6.877-10.368,6.877-16.602V40.51c8.9-9.907,14.127-22.932,14.127-36.589V3h0.201V3.029z M14.641,27.054
		c-2.753,0-5.409,0.46-7.98,1.371c0.738-1.103,1.65-2.206,2.57-3.117c3.673-3.673,8.344-5.774,13.389-6.234
		c-2.474,2.474-4.68,5.141-6.694,8.066l0,0C15.561,27.054,15.101,27.054,14.641,27.054z M9.692,55.481
		c0.825-3.481,3.213-12.286,5.87-17.062l11.183,11.288C21.978,52.364,13.077,54.656,9.692,55.481z M39.864,55.941
		c-1.007,1.007-2.014,1.832-3.117,2.57c1.103-3.031,1.563-6.234,1.371-9.351c2.935-2.014,5.591-4.22,8.066-6.694
		C45.734,47.597,43.528,52.278,39.864,55.941z M30.964,51.271L13.912,34.208C22.62,16.6,40.689,5.225,60.322,4.861
		C59.948,24.483,48.573,42.552,30.964,51.271z"/>
	
		<rect x="22.643" y="34.865" transform="matrix(0.7071 -0.7071 0.7071 0.7071 -18.401 27.1384)" style="fill:#F99E36;" width="1.832" height="1.832"/>
	
		<rect x="25.563" y="37.805" transform="matrix(0.7071 -0.7071 0.7071 0.7071 -19.6246 30.0647)" style="fill:#165573;" width="1.832" height="1.832"/>
	
		<rect x="28.484" y="40.746" transform="matrix(0.7071 -0.7071 0.7071 0.7071 -20.8481 32.9911)" style="fill:#F99E36;" width="1.832" height="1.832"/>
</g>
<g>
</g>
<g>
</g>
<g>
</g>
<g>
</g>
<g>
</g>
<g>
</g>
</svg>
