<?xml version="1.0" encoding="iso-8859-1"?>
<!-- Generator: Adobe Illustrator 21.0.2, SVG Export Plug-In . SVG Version: 6.00 Build 0)  -->
<svg version="1.1" id="Layer_1" xmlns="http://www.w3.org/2000/svg" xmlns:xlink="http://www.w3.org/1999/xlink" x="0px" y="0px"
	 viewBox="0 0 64 64" style="enable-background:new 0 0 64 64;" xml:space="preserve">
<circle style="fill:#F99E36;" cx="32" cy="32.285" r="30.492"/>
<path style="fill:#165573;" d="M17.671,25.765c0-8.308,6.702-15.131,15.01-15.131s15.01,6.811,15.01,15.131
	s-15.01,30.249-15.01,30.249S17.671,34.073,17.671,25.765z"/>
<circle style="fill:#FFFFFF;" cx="32.994" cy="23.563" r="6.492"/>
<g>
</g>
<g>
</g>
<g>
</g>
<g>
</g>
<g>
</g>
<g>
</g>
</svg>
