<?xml version="1.0" encoding="iso-8859-1"?>
<!-- Generator: Adobe Illustrator 21.0.2, SVG Export Plug-In . SVG Version: 6.00 Build 0)  -->
<svg version="1.1" id="Layer_1" xmlns="http://www.w3.org/2000/svg" xmlns:xlink="http://www.w3.org/1999/xlink" x="0px" y="0px"
	 viewBox="0 0 64 64" style="enable-background:new 0 0 64 64;" xml:space="preserve">
<g>
	<g>
		<path style="fill:#F99E36;" d="M62.177,25.807v36.477H2.51V25.807h0.151c0,0.03,0.02,0.05,0.05,0.07
			c-0.01,0.03-0.01,0.081-0.01,0.121l29.542,23.009h0.101l29.552-22.999c0.101-0.101,0-0.191-0.091-0.191h0.372V25.807z"/>
		<path style="fill:#F99E36;" d="M61.986,62.092c0,0.101,0,0.191-0.101,0.191H2.792c-0.101,0-0.191-0.101-0.101-0.191l23.221-18.017
			l6.331,4.932h0.101l6.412-4.992L61.986,62.092z"/>
	</g>
	<polygon style="fill:#E1E6E9;" points="52.656,9.159 52.656,33.195 32.344,49.008 32.243,49.008 12.032,33.276 12.032,9.159 	"/>
	<g>
		<rect x="26.284" y="55.168" style="fill:#165573;" width="1.922" height="1.832"/>
		<rect x="31.378" y="55.168" style="fill:#165573;" width="1.922" height="1.832"/>
		<rect x="36.481" y="55.168" style="fill:#165573;" width="1.922" height="1.832"/>
		<path style="fill:#165573;" d="M52.656,17.151v2.406l7.992,6.261L32.344,47.85L4.05,25.807l7.992-6.261v-2.396L1.544,25.324V63.25
			h61.6V25.324L52.656,17.151z M3.466,27.83l20.885,16.266L3.466,60.361V27.83z M5.298,61.328l20.594-16.074l5.777,4.519
			c0.191,0.191,0.382,0.191,0.674,0.191c0.191,0,0.483-0.101,0.674-0.191l5.777-4.519l20.594,16.074H5.298z M61.221,60.361
			L40.336,44.096L61.221,27.83V60.361z M32.344,3.764l6.834,5.294h3.181l-9.341-7.217c-0.382-0.292-0.866-0.292-1.248,0
			l-9.341,7.217h3.181L32.344,3.764z"/>
		<rect x="20.125" y="14.735" style="fill:#F99E36;" width="24.348" height="1.922"/>
		<rect x="20.125" y="21.288" style="fill:#F99E36;" width="24.348" height="1.922"/>
		<rect x="20.125" y="27.83" style="fill:#F99E36;" width="24.348" height="1.922"/>
	</g>
</g>
<g>
</g>
<g>
</g>
<g>
</g>
<g>
</g>
<g>
</g>
<g>
</g>
</svg>
