<?xml version="1.0" encoding="iso-8859-1"?>
<!-- Generator: Adobe Illustrator 21.0.2, SVG Export Plug-In . SVG Version: 6.00 Build 0)  -->
<svg version="1.1" id="Layer_1" xmlns="http://www.w3.org/2000/svg" xmlns:xlink="http://www.w3.org/1999/xlink" x="0px" y="0px"
	 viewBox="0 0 64 64" style="enable-background:new 0 0 64 64;" xml:space="preserve">
<g>
	<path style="fill:#FFFFFF;" d="M2.429,33.739L2.429,33.739L2.429,33.739c16.437,21.851,43.013,21.851,59.348,0l0,0l0,0
		C45.339,11.888,18.764,11.888,2.429,33.739z"/>
	<g>
		<path style="fill:#193651;" d="M61.869,22.963c-8.162-9.16-18.794-14.276-29.818-14.276S10.396,13.803,2.234,22.963l-1.482-1.287
			c8.563-9.644,19.69-14.955,31.3-14.955s22.737,5.311,31.197,14.955L61.869,22.963z"/>
		<path style="fill:#193651;" d="M32.154,59.667v-1.966c0.587,0,1.276,0,1.873-0.103l0.103,1.966
			C33.523,59.667,32.834,59.667,32.154,59.667z M30.178,59.574c-0.69,0-1.379-0.103-1.966-0.196l0.196-1.966
			c0.587,0.103,1.276,0.103,1.873,0.196L30.178,59.574z M36.189,59.378l-0.196-1.966c0.587-0.103,1.276-0.196,1.873-0.298
			l0.298,1.966C37.558,59.276,36.879,59.378,36.189,59.378z M26.143,59.183c-0.69-0.103-1.276-0.196-1.966-0.391l0.391-1.966
			c0.587,0.103,1.276,0.298,1.873,0.391L26.143,59.183z M40.224,58.689l-0.494-1.873c0.587-0.103,1.276-0.298,1.873-0.494
			l0.587,1.873C41.5,58.39,40.811,58.586,40.224,58.689z M22.212,58.287c-0.69-0.196-1.276-0.391-1.966-0.587l0.587-1.873
			c0.587,0.196,1.184,0.391,1.873,0.587L22.212,58.287z M44.063,57.598l-0.69-1.863c0.587-0.196,1.184-0.391,1.77-0.69l0.782,1.873
			C45.339,57.114,44.753,57.402,44.063,57.598z M18.373,57.011c-0.587-0.298-1.276-0.494-1.873-0.793l0.782-1.77
			c0.587,0.298,1.184,0.494,1.77,0.782L18.373,57.011z M47.799,56.126l-0.782-1.77c0.587-0.298,1.184-0.587,1.678-0.885l0.885,1.77
			C48.983,55.539,48.386,55.828,47.799,56.126z M14.729,55.344c-0.587-0.298-1.184-0.587-1.77-0.988l0.988-1.678
			c0.587,0.298,1.081,0.587,1.678,0.885L14.729,55.344z M51.34,54.16l-0.988-1.678c0.587-0.298,1.081-0.69,1.678-0.988l1.081,1.678
			C52.524,53.47,51.937,53.862,51.34,54.16z M11.188,53.275c-0.587-0.391-1.081-0.782-1.678-1.184l1.184-1.575
			c0.494,0.391,1.081,0.782,1.575,1.081L11.188,53.275z M54.788,51.988l-1.184-1.575c0.494-0.391,0.988-0.782,1.575-1.184
			l1.184,1.575C55.776,51.206,55.282,51.597,54.788,51.988z M7.936,50.908c-0.494-0.391-0.988-0.885-1.472-1.276l1.276-1.472
			c0.494,0.391,0.988,0.782,1.472,1.184L7.936,50.908z M57.835,49.436l-1.276-1.472c0.494-0.391,0.988-0.885,1.379-1.276
			l1.379,1.379C58.926,48.551,58.432,49.045,57.835,49.436z M4.889,48.252c-0.494-0.494-0.988-0.885-1.472-1.379l1.379-1.379
			c0.494,0.494,0.885,0.885,1.379,1.379L4.889,48.252z M60.789,46.677l-1.379-1.379c0.494-0.494,0.885-0.885,1.276-1.379
			l1.472,1.276C61.674,45.689,61.283,46.183,60.789,46.677z M2.131,45.401c-0.494-0.494-0.885-0.988-1.276-1.472l1.472-1.276
			c0.391,0.494,0.885,0.988,1.276,1.472L2.131,45.401z"/>
	</g>
	<polygon style="fill:#FFFFFF;" points="37.074,30.044 26.339,27.78 28.603,38.505 30.281,35.355 35.788,40.769 39.431,37.136 
		33.925,31.722 	"/>
	<g>
		<path style="fill:#165573;" d="M32.051,6.721c-11.61,0-22.736,5.311-31.3,14.966l1.472,1.276
			c8.172-9.16,18.805-14.276,29.828-14.276s21.656,5.115,29.818,14.276l1.379-1.276C54.788,12.032,43.662,6.721,32.051,6.721z"/>
		<path style="fill:#165573;" d="M12.959,54.356c0.587,0.391,1.184,0.69,1.77,0.988l0.885-1.77
			c-0.587-0.298-1.081-0.587-1.678-0.885L12.959,54.356z"/>
		<path style="fill:#165573;" d="M16.499,56.229c0.587,0.298,1.276,0.494,1.873,0.793l0.69-1.77
			c-0.587-0.298-1.184-0.494-1.77-0.782L16.499,56.229z"/>
		<path style="fill:#165573;" d="M20.246,57.701c0.69,0.196,1.276,0.391,1.966,0.587l0.494-1.873
			c-0.69-0.196-1.276-0.391-1.873-0.587L20.246,57.701z"/>
		<path style="fill:#165573;" d="M6.464,49.631c0.494,0.391,0.988,0.885,1.472,1.276l1.276-1.575
			c-0.494-0.391-0.988-0.782-1.472-1.184L6.464,49.631z"/>
		<path style="fill:#165573;" d="M3.407,46.873c0.494,0.494,0.988,0.885,1.472,1.379l1.276-1.379
			c-0.494-0.494-0.885-0.885-1.379-1.379L3.407,46.873z"/>
		<path style="fill:#165573;" d="M9.511,52.091c0.587,0.391,1.081,0.782,1.678,1.184l1.081-1.678
			c-0.494-0.298-1.081-0.69-1.575-1.081L9.511,52.091z"/>
		<path style="fill:#165573;" d="M2.326,42.643l-1.472,1.276c0.391,0.494,0.782,0.988,1.276,1.472l1.472-1.276
			C3.211,43.631,2.717,43.137,2.326,42.643z"/>
		<path style="fill:#165573;" d="M28.212,59.378c0.587,0.103,1.276,0.196,1.966,0.196l0.103-1.966
			c-0.587-0.103-1.276-0.103-1.873-0.196L28.212,59.378z"/>
		<path style="fill:#165573;" d="M24.178,58.781c0.69,0.196,1.276,0.298,1.966,0.391l0.298-1.966
			c-0.587-0.103-1.276-0.298-1.873-0.391L24.178,58.781z"/>
		<path style="fill:#165573;" d="M53.604,50.414l1.184,1.575c0.494-0.391,0.988-0.793,1.575-1.184l-1.184-1.575
			C54.592,49.631,54.098,50.022,53.604,50.414z"/>
		<path style="fill:#165573;" d="M56.558,47.954l1.276,1.472c0.587-0.391,1.081-0.885,1.472-1.379l-1.369-1.369
			C57.546,47.068,57.052,47.562,56.558,47.954z"/>
		<path style="fill:#165573;" d="M50.362,52.482l0.988,1.678c0.587-0.298,1.184-0.69,1.77-0.988l-1.081-1.678
			C51.443,51.793,50.949,52.194,50.362,52.482z"/>
		<path style="fill:#165573;" d="M60.696,43.919c-0.391,0.494-0.793,0.885-1.276,1.379l1.379,1.379
			c0.494-0.494,0.885-0.988,1.379-1.472L60.696,43.919z"/>
		<path style="fill:#165573;" d="M35.994,57.402l0.196,1.966c0.69,0,1.379-0.103,1.966-0.298l-0.298-1.966
			C37.27,57.207,36.58,57.31,35.994,57.402z"/>
		<path style="fill:#165573;" d="M32.154,57.701v1.966c0.69,0,1.379,0,1.966-0.103l-0.103-1.966
			C33.431,57.701,32.741,57.701,32.154,57.701z"/>
		<path style="fill:#165573;" d="M39.73,56.816l0.494,1.873c0.587-0.103,1.276-0.298,1.966-0.494l-0.587-1.873
			C41.006,56.517,40.316,56.713,39.73,56.816z"/>
		<path style="fill:#165573;" d="M43.373,55.735l0.69,1.873c0.69-0.196,1.276-0.494,1.873-0.69l-0.793-1.873
			C44.547,55.344,43.96,55.539,43.373,55.735z"/>
		<path style="fill:#165573;" d="M47.017,54.356l0.782,1.77c0.587-0.298,1.184-0.587,1.77-0.885l-0.885-1.77
			C48.19,53.769,47.604,54.057,47.017,54.356z"/>
		<path style="fill:#165573;" d="M62.662,33.194c-8.172-10.828-19-16.829-30.507-16.829c-11.61,0-22.438,6.001-30.507,16.829
			L1.06,33.688l0.494,0.587c8.152,10.828,18.98,16.829,30.497,16.829s22.345-5.908,30.507-16.736l0.587-0.587L62.662,33.194z
			 M3.603,33.781c3.541-4.591,7.617-8.234,12.022-10.828c-2.089,3.129-3.304,6.886-3.304,10.931c0,3.922,1.142,7.575,3.119,10.643
			C11.106,41.932,7.112,38.32,3.603,33.781z M44.259,46.76c-3.901,1.626-7.997,2.481-12.207,2.481
			c-4.148,0-8.193-0.823-12.032-2.408c-3.469-3.232-5.64-7.843-5.64-12.948c0-5.27,2.316-10.015,5.98-13.267
			c3.757-1.503,7.689-2.285,11.692-2.285c4.076,0,8.049,0.793,11.826,2.326c3.644,3.252,5.939,7.967,5.939,13.226
			C49.817,38.948,47.686,43.528,44.259,46.76z M48.829,44.434c1.935-3.057,3.057-6.67,3.057-10.55c0-4.014-1.204-7.74-3.263-10.859
			c4.344,2.594,8.358,6.217,11.878,10.766C57.032,38.268,53.09,41.85,48.829,44.434z"/>
	</g>
	<circle style="fill:#F99E36;" cx="32.103" cy="33.739" r="12.65"/>
	<polygon style="fill:#FFFFFF;" points="37.074,30.044 26.339,27.78 28.603,38.505 30.281,35.355 35.788,40.769 39.431,37.136 
		33.925,31.722 	"/>
</g>
<g>
</g>
<g>
</g>
<g>
</g>
<g>
</g>
<g>
</g>
<g>
</g>
</svg>
