<?xml version="1.0" encoding="iso-8859-1"?>
<!-- Generator: Adobe Illustrator 21.0.2, SVG Export Plug-In . SVG Version: 6.00 Build 0)  -->
<svg version="1.1" id="Layer_1" xmlns="http://www.w3.org/2000/svg" xmlns:xlink="http://www.w3.org/1999/xlink" x="0px" y="0px"
	 viewBox="0 0 64 64" style="enable-background:new 0 0 64 64;" xml:space="preserve">
<g>
	<path style="fill:#165573;" d="M47.491,2.14c0.709,0.261,1.469,0.254,2.197,0.442c5.714,1.474,9.718,6.773,9.522,12.649
		c-0.027,0.803-0.163,1.595-0.362,2.368c-0.102,0.395,0,0.643,0.251,0.935c2.572,2.997,3.729,6.478,3.321,10.404
		c-0.749,7.217-6.505,12.399-13.791,12.504c-0.82,0.012-0.82,0.012-0.82,0.845c0,4.633,0.014,9.265-0.017,13.898
		c-0.004,0.636,0.188,0.755,0.773,0.742c1.68-0.039,3.362-0.024,5.043-0.006c0.35,0.004,0.494-0.094,0.604-0.444
		c0.56-1.78,2.321-2.953,4.189-2.836c1.9,0.12,3.514,1.449,3.83,3.3c0.411,2.407-0.911,4.353-3.011,4.957
		c-2.029,0.583-4.289-0.532-5.037-2.561c-0.168-0.455-0.38-0.566-0.834-0.561c-2.306,0.024-4.613-0.004-6.919,0.023
		c-0.483,0.006-0.614-0.108-0.612-0.603c0.019-5.375,0.004-10.751,0.025-16.126c0.002-0.52-0.125-0.643-0.642-0.64
		c-3.733,0.024-7.467,0.022-11.2,0.003c-0.485-0.002-0.665,0.073-0.661,0.624c0.029,3.714,0.022,7.428,0.005,11.142
		c-0.002,0.407,0.125,0.562,0.508,0.684c1.866,0.594,2.939,2.425,2.727,4.585c-0.169,1.726-1.701,3.271-3.495,3.523
		c-2.266,0.319-4.185-0.97-4.758-3.196c-0.513-1.994,0.685-4.182,2.729-4.91c0.373-0.133,0.451-0.314,0.45-0.672
		c-0.012-3.733-0.016-7.467,0.004-11.2c0.002-0.466-0.127-0.581-0.585-0.579c-3.46,0.019-6.92,0.023-10.379-0.002
		c-0.516-0.004-0.594,0.17-0.592,0.631c0.015,5.395,0.002,10.79,0.023,16.185c0.002,0.518-0.126,0.651-0.645,0.645
		c-2.678-0.028-5.356-0.01-8.034-0.017c-0.315-0.001-0.518,0.026-0.644,0.399c-0.592,1.76-1.864,2.706-3.694,2.84
		c-1.681,0.122-3.03-0.557-3.89-2.007c-0.921-1.555-0.843-3.152,0.181-4.635c0.957-1.386,2.351-1.997,4.012-1.794
		c1.692,0.207,2.856,1.194,3.463,2.782c0.14,0.366,0.305,0.458,0.668,0.455c2.091-0.016,4.183-0.019,6.274,0.002
		c0.409,0.004,0.52-0.102,0.518-0.515c-0.015-4.828-0.016-9.656,0.002-14.484c0.002-0.447-0.163-0.498-0.539-0.487
		c-2.143,0.068-4.258-0.092-6.27-0.913C6.556,38.55,3.545,35.03,2.689,29.885c-0.92-5.532,1.066-10.015,5.445-13.432
		c2.028-1.582,4.387-2.439,6.952-2.68c0.368-0.035,0.525-0.174,0.67-0.499c2.476-5.572,6.656-9.131,12.589-10.596
		c0.968-0.239,1.96-0.337,2.953-0.421c0.16-0.014,0.357,0.084,0.474-0.117c0.43,0,0.86,0,1.29,0c0.029,0.088,0.1,0.104,0.181,0.108
		c2.242,0.12,4.381,0.678,6.439,1.553c0.326,0.138,0.586,0.115,0.879-0.046c1.203-0.663,2.491-1.086,3.835-1.358
		c0.368-0.075,0.764-0.044,1.1-0.257C46.161,2.14,46.826,2.14,47.491,2.14z M33.386,30.759c0,2.776,0.008,5.551-0.009,8.327
		c-0.002,0.386,0.107,0.484,0.487,0.483c3.851-0.014,7.701-0.014,11.552,0.001c0.378,0.002,0.446-0.117,0.443-0.463
		c-0.015-2.209-0.019-4.418,0.003-6.626c0.004-0.359-0.147-0.454-0.437-0.545c-2.1-0.66-3.309-2.97-2.685-5.107
		c0.565-1.935,2.356-3.237,4.25-3.088c2.118,0.166,3.665,1.596,3.958,3.657c0.274,1.926-0.89,3.833-2.785,4.513
		c-0.323,0.116-0.455,0.238-0.452,0.602c0.02,2.189,0.019,4.378,0.001,6.568c-0.003,0.378,0.091,0.486,0.479,0.487
		c2.066,0.003,4.024-0.416,5.879-1.342c4.433-2.213,7.11-7.427,6.365-12.294c-0.41-2.681-1.507-4.987-3.444-6.88
		c-0.296-0.289-0.341-0.53-0.208-0.91c0.57-1.633,0.681-3.305,0.453-5.022c-0.696-5.237-5.703-9.365-10.98-9.049
		c-2.019,0.121-3.845,0.781-5.552,1.825c-0.216,0.132-0.384,0.22-0.677,0.071c-2.916-1.487-6.007-2.225-9.279-1.833
		c-6.242,0.747-10.609,4.102-13.258,9.756c-0.247,0.526-0.277,1.252-0.665,1.587c-0.393,0.339-1.119,0.115-1.697,0.17
		c-0.019,0.002-0.039,0.003-0.058,0.005c-5.375,0.621-9.608,4.64-10.559,10.024c-0.813,4.605,1.405,9.531,5.35,12.035
		c2.459,1.561,5.145,2.06,7.998,1.969c0.377-0.012,0.336-0.217,0.336-0.454c-0.001-2.209-0.008-4.418,0.007-6.626
		c0.002-0.338-0.114-0.46-0.427-0.562c-2.702-0.88-3.742-4.281-2.006-6.517c1.158-1.492,2.945-2.031,4.769-1.438
		c1.612,0.524,2.758,2.114,2.796,3.878c0.038,1.782-1.088,3.433-2.817,4.05c-0.363,0.129-0.471,0.283-0.468,0.655
		c0.017,2.15,0.025,4.3-0.004,6.45c-0.007,0.485,0.152,0.567,0.591,0.565c3.44-0.017,6.88-0.022,10.32,0.004
		c0.522,0.004,0.638-0.132,0.637-0.642c-0.02-5.629-0.009-11.259-0.02-16.888c-0.001-0.398,0.101-0.7,0.369-0.999
		c1.042-1.165,2.054-2.358,3.092-3.526c0.223-0.251,0.276-0.419,0.079-0.745c-1.62-2.681,0.136-6.05,3.274-6.318
		c1.778-0.152,3.405,0.801,4.164,2.439c0.707,1.524,0.371,3.443-0.819,4.68c-1.177,1.224-3.154,1.616-4.701,0.894
		c-0.315-0.147-0.468-0.1-0.679,0.147c-0.888,1.041-1.787,2.071-2.701,3.09c-0.216,0.241-0.272,0.489-0.271,0.796
		C33.389,25.325,33.386,28.042,33.386,30.759z M46.709,30.291c1.367-0.007,2.408-1.021,2.405-2.343
		c-0.003-1.286-1.075-2.347-2.359-2.336c-1.304,0.011-2.326,1.052-2.317,2.362C44.446,29.291,45.433,30.297,46.709,30.291z
		 M30.112,57.9c-0.015,1.328,0.974,2.358,2.29,2.383c1.282,0.024,2.361-1.032,2.37-2.321c0.01-1.3-0.945-2.329-2.178-2.347
		C31.153,55.594,30.128,56.538,30.112,57.9z M6.655,55.619c-1.318,0.003-2.335,1.023-2.328,2.332
		c0.007,1.28,1.089,2.346,2.361,2.327c1.315-0.021,2.323-1.012,2.32-2.283C9.005,56.635,7.995,55.615,6.655,55.619z M58.236,55.614
		c-1.325-0.011-2.366,0.999-2.376,2.306c-0.01,1.294,1.041,2.355,2.34,2.362c1.281,0.007,2.307-1.006,2.326-2.296
		C60.544,56.651,59.555,55.625,58.236,55.614z M38.601,17.055c1.334,0.009,2.337-0.984,2.338-2.314
		c0.001-1.319-1.008-2.337-2.327-2.347c-1.277-0.01-2.355,1.074-2.343,2.355C36.281,15.989,37.351,17.047,38.601,17.055z
		 M19.128,25.715c-1.307-0.004-2.341,1.023-2.349,2.333c-0.008,1.234,1.056,2.314,2.305,2.341c1.239,0.026,2.362-1.081,2.371-2.337
		C21.463,26.74,20.446,25.719,19.128,25.715z"/>
	<path style="fill:#F99E36;" d="M24.278,50.65c-0.924,0-0.924,0-0.924-0.903c0-0.97,0-0.97,0.983-0.97c0.893,0,0.893,0,0.893,0.882
		c0,0.019,0,0.039,0,0.058C25.23,50.65,25.23,50.65,24.278,50.65z"/>
	<path style="fill:#F99E36;" d="M40.575,50.65c-0.917,0-0.917,0-0.917-0.91c0-0.962,0-0.962,0.991-0.962c0.885,0,0.885,0,0.885,0.89
		C41.534,50.65,41.534,50.65,40.575,50.65z"/>
	<path style="fill:#F99E36;" d="M24.316,44.383c0.913,0,0.913,0,0.913,0.912c0,0.961,0,0.961-0.988,0.961
		c-0.888,0-0.888,0-0.888-0.89C23.354,44.383,23.354,44.383,24.316,44.383z"/>
	<path style="fill:#F99E36;" d="M39.658,45.289c0-0.906,0-0.906,1.157-0.906c0.719,0,0.719,0,0.719,1.165
		c0,0.708,0,0.708-1.183,0.708C39.658,46.256,39.658,46.256,39.658,45.289z"/>
	<path style="fill:#F99E36;" d="M24.293,53.188c0.937,0,0.937,0,0.937,0.936c0,0.94,0,0.94-0.936,0.94c-0.94,0-0.94,0-0.94-0.94
		C23.354,53.188,23.354,53.188,24.293,53.188z"/>
	<path style="fill:#F99E36;" d="M40.629,53.188c0.905,0,0.905,0,0.905,0.91c0,0.967,0,0.967-0.968,0.967
		c-0.908,0-0.908,0-0.908-0.913C39.658,53.188,39.658,53.188,40.629,53.188z"/>
	<path style="fill:#F99E36;" d="M46.73,30.319c-1.276,0.007-2.263-0.999-2.271-2.317c-0.009-1.31,1.013-2.351,2.317-2.362
		c1.284-0.011,2.356,1.05,2.359,2.336C49.138,29.297,48.097,30.311,46.73,30.319z"/>
	<path style="fill:#F99E36;" d="M30.133,57.928c0.015-1.362,1.04-2.306,2.482-2.285c1.233,0.018,2.188,1.047,2.178,2.347
		c-0.01,1.289-1.088,2.345-2.37,2.321C31.108,60.286,30.118,59.257,30.133,57.928z"/>
	<path style="fill:#F99E36;" d="M6.676,55.647c1.34-0.004,2.351,1.016,2.354,2.376c0.003,1.27-1.005,2.262-2.32,2.283
		c-1.272,0.02-2.354-1.046-2.361-2.327C4.341,56.67,5.358,55.651,6.676,55.647z"/>
	<path style="fill:#F99E36;" d="M58.257,55.642c1.319,0.011,2.308,1.037,2.289,2.372c-0.018,1.29-1.045,2.303-2.326,2.296
		c-1.299-0.007-2.35-1.068-2.34-2.362C55.891,56.641,56.932,55.631,58.257,55.642z"/>
	<path style="fill:#F99E36;" d="M38.622,17.083c-1.25-0.008-2.32-1.066-2.332-2.306c-0.012-1.281,1.065-2.365,2.343-2.355
		c1.319,0.01,2.328,1.028,2.327,2.347C40.959,16.099,39.955,17.092,38.622,17.083z"/>
	<path style="fill:#F99E36;" d="M19.149,25.743c1.319,0.004,2.335,1.025,2.326,2.337c-0.009,1.256-1.132,2.364-2.371,2.337
		c-1.249-0.026-2.313-1.107-2.305-2.341C16.808,26.767,17.842,25.74,19.149,25.743z"/>
</g>
<g>
</g>
<g>
</g>
<g>
</g>
<g>
</g>
<g>
</g>
<g>
</g>
</svg>
