<?xml version="1.0" encoding="iso-8859-1"?>
<!-- Generator: Adobe Illustrator 21.0.2, SVG Export Plug-In . SVG Version: 6.00 Build 0)  -->
<svg version="1.1" id="Layer_1" xmlns="http://www.w3.org/2000/svg" xmlns:xlink="http://www.w3.org/1999/xlink" x="0px" y="0px"
	 viewBox="0 0 64 64" style="enable-background:new 0 0 64 64;" xml:space="preserve">
<circle style="fill:#F99E36;" cx="32" cy="32" r="20.459"/>
<g>
	<rect x="19.828" y="59.349" style="fill:#F99E36;" width="2.151" height="2.151"/>
	<rect x="30.919" y="59.349" style="fill:#F99E36;" width="2.151" height="2.151"/>
	<rect x="42.01" y="59.349" style="fill:#F99E36;" width="2.151" height="2.151"/>
	<rect x="19.828" y="2.5" style="fill:#F99E36;" width="2.151" height="2.151"/>
	<rect x="30.919" y="2.5" style="fill:#F99E36;" width="2.151" height="2.151"/>
	<rect x="42.01" y="2.5" style="fill:#F99E36;" width="2.151" height="2.151"/>
	<rect x="59.349" y="19.828" style="fill:#F99E36;" width="2.151" height="2.151"/>
	<rect x="59.349" y="30.919" style="fill:#F99E36;" width="2.151" height="2.151"/>
	<rect x="59.349" y="42.01" style="fill:#F99E36;" width="2.151" height="2.151"/>
	<rect x="2.5" y="19.828" style="fill:#F99E36;" width="2.151" height="2.151"/>
	<rect x="2.5" y="30.919" style="fill:#F99E36;" width="2.151" height="2.151"/>
	<rect x="2.5" y="42.01" style="fill:#F99E36;" width="2.151" height="2.151"/>
	<polygon style="fill:#154475;" points="45.14,11.541 45.14,13.692 48.732,13.692 42.212,20.211 43.744,21.731 50.308,15.167 
		50.308,18.86 52.459,18.86 52.459,11.541 	"/>
	<polygon style="fill:#154475;" points="21.731,20.256 15.167,13.692 18.86,13.692 18.86,11.541 11.541,11.541 11.541,18.86 
		13.692,18.86 13.692,15.28 20.2,21.788 	"/>
</g>
<circle style="fill:#FFFFFF;" cx="32" cy="22.745" r="7.319"/>
<path style="fill:#154475;" d="M32,31.032c-4.628,0-8.4-3.772-8.4-8.4s3.772-8.4,8.4-8.4s8.4,3.772,8.4,8.4S36.628,31.032,32,31.032
	z M32,16.496c-3.445,0-6.249,2.804-6.249,6.249s2.804,6.249,6.249,6.249c3.445,0,6.249-2.804,6.249-6.249S35.445,16.496,32,16.496z"
	/>
<path style="fill:#FFFFFF;" d="M32,48.585c5.596,0,10.55-2.365,14.108-6.024v-6.463c0-1.295-0.754-2.477-1.937-3.119l-3.333-1.723
	c-2.263,2.365-5.382,3.772-8.94,3.772c-3.445,0-6.677-1.396-8.94-3.772l-3.231,1.824c-1.182,0.54-1.937,1.835-1.937,3.119v6.463
	C21.45,46.322,26.404,48.585,32,48.585z"/>
<path style="fill:#154475;" d="M50.308,45.14v3.581l-4.402-4.402c0.36-0.327,0.721-0.664,1.058-1.013l0.327-0.327v-6.891
	c0-1.723-0.968-3.333-2.477-4.087l-4.087-2.049l-0.54,0.54c-2.263,2.263-5.056,3.445-8.186,3.445c-3.13,0-6.024-1.182-8.186-3.445
	l-0.54-0.54L19.187,32c-1.509,0.856-2.477,2.365-2.477,4.087v6.891l0.327,0.327c0.36,0.372,0.743,0.732,1.126,1.07l-4.459,4.459
	v-3.704h-2.151v7.319h7.319v-2.151H15.28l4.56-4.56c3.513,2.545,7.702,3.918,12.16,3.918c4.481,0,8.692-1.396,12.228-3.975
	l4.616,4.616H45.14v2.151h7.319v-7.319h-2.151V45.14z M18.973,42.122h-0.214v-6.024c0-0.968,0.428-1.723,1.295-2.151l2.691-1.295
	c2.59,2.263,5.709,3.558,9.154,3.558s6.677-1.295,9.154-3.558l2.691,1.295c0.754,0.428,1.295,1.295,1.295,2.151v6.024
	c-3.445,3.445-8.073,5.382-13.027,5.382C27.158,47.504,22.519,45.568,18.973,42.122z"/>
<g>
</g>
<g>
</g>
<g>
</g>
<g>
</g>
<g>
</g>
<g>
</g>
</svg>
